feature_selections_g.R
…
##### Check Protein Expression #####

# organize table
lm_top <-select(train, sample, gender, msi, msi_toplist,yprotein)
data <- gather(data = lm_top, key = Class, value = Abundance, -c(1:3))
table<-summarise(group_by(data, Class, msi, gender), expression=mean(Abundance))

table

## # A tibble: 100 x 4
## # Groups:   Class, msi [?]
##    Class msi   gender expression
##    <chr> <fct> <fct>       <dbl>
##  1 ASS1  Hi    f            4.93
##  2 ASS1  Hi    m            4.96
##  3 ASS1  Lo    f            3.93
##  4 ASS1  Lo    m            4.47
##  5 C4BPA Hi    f            3.90
##  6 C4BPA Hi    m            4.75
##  7 C4BPA Lo    f            3.43
##  8 C4BPA Lo    m            3.36
##  9 CTSG  Hi    f            5.38
## 10 CTSG  Hi    m            5.65
## # ... with 90 more rows
…
